{
  "page": 5,
  "totalPages": 8,
  "totalItems": 92,
  "articles": [
    {
      "title": "《战地风云 6》- 反作弊更新 - 第 1 赛季",
      "summary": "关于《战地风云 6》第 1 赛季反作弊措施的详细更新，内容涵盖：上线成果、比赛异常率改善、作弊行为检测、安全启动进展以及后续计划。",
      "slug": "battlefield-6-anticheat-update-season-1",
      "type": "新闻文章",
      "date": "2025-11-28T08:00:00.000Z",
      "img": "https://drop-assets.ea.com/images/24i6UkxaLbB2CS5ITJEiV7/66f21805788a76c3d38af25be63849d8/CMTY-Anticheat-S1-EN.jpg?im=AspectCrop=(16,9),xPosition=0.5,yPosition=0.5",
      "featured": false,
      "tags": [],
      "body": "\n《战地风云 6》正式上线，发布会取得圆满成功！在盛况空前的发布会上和发布后的最初几周，世界各地的玩家积极参与了数百万场比赛，并就我们的反作弊工作开展了大量讨论。\n\n\n\n在<u>[之前的 Javelin 博客](https://www.ea.com/zh-cn/security/news/anticheat-progress-report)</u>中，我们谈到了通过所谓的***比赛感染率 (MIR)*** 来衡量作弊行为，这是我们用来衡量任何特定比赛受到至少一名作弊者影响的置信指标。可以将其理解为玩家在比赛中遇到作弊者的几率。我们更愿意用这一指标来衡量我们是否成功保障了玩家的游戏体验，而不仅仅是大量开展封号之类的工作，因为即使我们一直在努力对作弊者进行屏蔽、踢出、短期和永久封号，但如果未能保障您的游戏体验，那么这些工作也没有多大意义。利用这一指标，我们不仅可以在作弊者成功作弊并破坏您的游戏体验时抓住他们，还能从源头上有效阻止他们对游戏产生影响。\n\n\n\n我们很自豪地告诉大家，在游戏发布后的一周内，**约*****98% 的比赛都是公平的***——这意味着我们的平均**比赛感染率 (MIR)** 约为 **2%**。也就是说，几乎每个进入《战地风云》的玩家都能享有公平的游戏环境。\n\n\n### **快速回顾：我们在 Beta 公测中学到了什么**\n\n![BF6 比赛异常率（公开测试）统计图，展示了在 2025 年 8 月 7 日至 17 日期间，异常率从 7% 显著下降至 2%，期间仅出现一次小幅回升。](https://drop-assets.ea.com/images/4kzDeIxDXbrMfwmOXzcV7k/b230358093a2646b30ea72fbe5743bab/MatchInfection-OB.jpg?im=AspectCrop=%2816,9%29,xPosition=0.05807291666666667,yPosition=0.11805555555555555)\n\n\n\nBeta 公测对于调整我们的检测系统、运营工作流和兼容性流程非常宝贵。我们在这些方面汲取了经验教训，并在发布前对其进行了改进，直接促成了大家迄今为止所体验到的稳定性和实力强度。\n\n\n\n在 Beta 公测过程中，我们借机考验了我们的反作弊技术和运营团队：\n\n- 我们 **阻止了超过 120 万次作弊尝试**，删除了数以万计的作弊者。我们还对一些过度自信而直播作弊的作弊者进行了永封处理。\n- 我们显著提高了比赛公平率，从开始时的 **93.1%** 增加到最后一天结束时的近 **98%**。\n- 安全启动采用率从 **62.5%** 跃升至 **92.5%** 。感谢各位玩家如此迅速地启用此功能，正因如此，我们才能在发布时充满信心地以各种方式利用它。如果您启用了该功能，您应该已经在游戏内的收件箱中看到坦克贴花，我们以此感谢您的配合。\n\n\n\n### **自发布以来：第 1 个月的结果和影响**\n\n![BF6 比赛异常率（首月）统计图，展示了在 2025 年 10 月 10 日至 11 月 10 日期间，异常率稳定维持在 2%-4% 间，仅出现小幅波动。](https://drop-assets.ea.com/images/1LJokcOwurfr3RnHlhcf6G/a19bb4f156757c5c2b60f8178501c58d/MatchInfection-1M.jpg?im=AspectCrop=%2816,9%29,xPosition=0.04296875,yPosition=0.1162037037037037)\n\n\n\n在游戏发布的那个周末，EA Javelin 反作弊系统**阻止了超过 367,000 次**作弊尝试。这一数字少于 Beta 公测的那个周末，但与我们目前正在追踪的作弊器开发者数量一致。迄今为止，我们累计**阻止了 239 万次作弊尝试**。\n\n\n\n截至目前，在我们全体 PC 玩家中，无法成功启用安全启动功能的玩家比例已降至 1.5%。这一进展离不开各位玩家的积极反馈、我们玩家关怀团队的不懈努力，以及部分核心社区成员的鼎力协助。针对剩余的特殊案例，我们也将持续跟进解决。安全启动并不能阻止一切作弊行为，但它本身是一道屏障，也是其他屏障的基础。它有助于增强我们的检测能力，使作弊器开发者更难通过每项检测。它可以被规避，一切都可以被规避，但有时甚至连专家都会忘记，这种规避也会点亮很多红灯；绕过屏障并不意味着我们无法监视其行为，作弊者回巢时会在沿途留下痕迹，让我们有机会锤击他们的整个社区。\n\n\n\n我们目前已发现 **190 个与作弊相关的程序、硬件、供应商、经销商及其社区**，并有多重检测手段。自游戏发布以来，**其中 183 个 (96.3%) 已宣布功能故障、检测通知、暂停使用和/或彻底下架作弊器**。虽然目前仍然有作弊者声称未被发现的视频片段流传，但更有可能的是，当您看到有人声称作弊未被发现的游戏视频时，他们已经被封号或即将被锤。如此成功地捣毁作弊者社区令人振奋。但我们知道，不良行为者会不断测试我们的防御，尝试用新的方式突破。我们一直密切注意这些新的威胁并准备好随时应对，但这些早期结果表明，我们的多层防御策略正在为玩家提供应有的公平体验。\n\n\n### **后续计划**\n\n在打击作弊的战争中，我们才刚刚起步。 接下来，我们将有以下举措：\n\n- **探索其他操作系统安全功能。**\n\n    - 您可能已经注意到，除了安全启动之外，《战地风云 6》系统要求中还包含 TPM 2.0、HVCI 和 VBS 等安全功能。需要注意的是，这些是操作系统安全功能，它们一般都是可以为计算机启用的良好安全态势，启用它们有助于避免在需要强制执行该要求时对玩《战地风云 6》造成任何中断。\n\n- **采取措施打击作弊硬件。**\n\n    - 部分玩家可能已经看过各种关于用户因使用作弊硬件而被永封的 EA 通信的文章和截图。虽然其中大多数是幽默的粉丝创作，而不是官方通信，但它们也有些许真实。我们禁止任何形式的作弊，使用已知的作弊硬件也不例外。\n    - 我们还在努力加强这方面的工作，不仅使用我们自己的检测方法，还与平台合作伙伴协作，确保这类设备不会在任何平台上影响我们全球各地的玩家群体。\n    - 对于此前曾依赖此类设备实现无障碍操作的玩家，我们推荐使用官方原厂外设，例如 <u>[Xbox 自适应控制器 | Xbox](https://www.xbox.com/en-US/accessories/controllers/xbox-adaptive-controller?msockid=05c749178cb361fb09785c798d2a604b)</u> 与 <u>[PlayStation 无障碍控制器（美国）](https://www.playstation.com/accessories/access-controller/)</u>。\n\n- **改进举报流程。**\n\n    - 我们收到玩家反馈，在某些模式下无法有效举报游戏中的违规或疑似作弊行为。我们正在开发新的流程并更新举报 UI，让举报流程更加丝滑，并让用户能够向我们的团队提供更多上下文，以便我们更好地了解情况，从而更快处理准确的举报。\n\n- **改进内部运营工具。**\n\n    - 提高我们内部工具的效率和有效性，让我们的分析师能够更快、更准确地验证检测、调查对作弊的举报以及密切关注作弊者的所作所为。正是通过内部工具，我们才能对如此快速地应对众多新兴作弊器开发者，确保有办法检测到它们并防止它们影响您的比赛。 \n\n- **机密。**\n\n    - 我们有多个团队在开发各种新的反作弊功能和检测手段，用于我们的一套多层工具，包括 Javelin、游戏客户端、服务器等，我们将在开发完成后尽快启用它们。我们将在其中任何新的封禁方式经过充分测试并准备就绪时分享更多信息；但目前，我们不想向任何意图破坏玩家游戏体验的不良行为者给出提示。\n\n\n\n\n### **前进之路**\n\n作弊器开发者永远不会停止进步，我们也不会。幸运的是，作为开发者和游戏玩家，我们都热衷于公平竞赛，因此我们已经准备了很长时间。尽管有备而来，我们仍然需要您的帮助：请通过游戏内作弊举报来举报您怀疑作弊的玩家。这些举报会获取额外的遥测数据并突显帐户，以便我们在调查可能的作弊行为和作弊者时有的放矢，并且有助于准确衡量作弊行为对玩家体验的影响。\n\n\n\n保障游戏公平，《战地风云》战场上见。\n"
    },
    {
      "title": "《战地风云 6》第 1 季免费试玩：内容说明与技巧要点",
      "summary": "《战地风云 6》将在黑五周末开放免费试玩。查看本次体验的完整内容，掌握一些实用技巧。",
      "slug": "battlefield-6-season-1-free-trial-details-tips-and-tricks",
      "type": "新闻文章",
      "date": "2025-11-24T16:00:00.000Z",
      "img": "https://drop-assets.ea.com/images/4P35sqmJWhgpW2sxMa4MGg/a7d05b81e0f963d5abad8f5790752017/BF6-FreeTrial-Thumbnail-16x9.jpg?im=AspectCrop=(16,9),xPosition=0.5,yPosition=0.5",
      "featured": false,
      "tags": [],
      "body": "### 目录\n\n- [**新兵突破**](#initiation-breakthrough)\n- [**新兵突破的 5 条技巧**](#five-tips-for-initiation-breakthrough)\n- [**小队战术模式**](#team-tactical-modes)\n- [**团队死斗与占领模式的 5 条技巧**](#five-tips-for-team-tactical-modes)\n- [**全面战争**](#all-out-warfare)\n- [**征服与升级模式的 5 条技巧**](#five-tips-for-all-out-warfare)\n\n\n---\n\n![展示 11 月 25 日至 12 月 2 日《战地风云 6》免费试玩的宣传图。画面包含三名士兵、城市景观，并展示三张地图：东方木林、布莱克韦尔油田和开罗围城。](https://drop-assets.ea.com/images/7LdkSVH48yr9zDOQntjx63/3a96e978de39d930dae6bff7fcf27fbd/BF6-S1B2-FreeTrialSocialStatic-16x9.png?im=AspectCrop=%2816,9%29,xPosition=0.5,yPosition=0.5)\n\n别去抢折扣了 - 《战地风云6》第 1 赛季免费试玩期间，把建筑夷为平地，把对手彻底击溃。免费试玩将于 11 月 25 日凌晨 4 点（UTC 12:00）开放，至 12 月 2 日凌晨 4 点（UTC 12:00）*截止。\n\n本次免费试玩开放三组玩法，包括更轻松的多人体验，可在三张地图上游玩，最新上线的东方木林和布莱克韦尔油田也在其中。要加入免费试玩，只需在喜欢的游戏平台下载免费的《战地风云》禁区冲突即可。 \n\n如果已经在尝试禁区冲突，包括职业等级、硬件解锁与等级、自定义物品等在内的所有进度，都会转移到本次试玩体验中。所有这些进度也将在购买《战地风云6》本体后完整继承；本次免费试玩即是购买前的试用机会，结束后如购买游戏本体，就能保留全部进度。\n\n如果你已经拥有《战地风云 6》，正好趁这个长周末把没玩过战地的朋友叫来组队。\n\n本次免费试玩内容如下，同时还有一些实用技巧，帮你更稳地赢下对局。\n## **新兵突破：开启《战地风云 6》的第一步{#initiation-breakthrough}**\n\n![身着战术装备的士兵在饱受战火摧残的城市环境中躲在路障后面进行战斗。](https://drop-assets.ea.com/images/4clgmuvn4UEMUIRywlAq3l/4f77cf078b7c8d1d3400aef1c27fc087/BF6-InitiationBreakthrough-16x9.jpg?im=AspectCrop=%2816,9%29,xPosition=0.5484375,yPosition=0.4083333333333333)\n\n模式设在开罗围城战场，很适合作为首次接触《战地风云》的入口体验，也适合想在玩家和机器人之间来一局轻松对局的人。\n\n新兵突破为 48 人与机器人共同参与的多人模式，双方将在前线展开激烈对抗。\n\n一方由玩家和机器人组成进攻方，另一方为防守方。进攻方需要在生命耗尽前，占领战斗区内的目标点。每当进攻方拿下一整个区域的所有目标点，战线就会推进到下一区域，直至抵达防守方的最终指挥区。进攻方占领所有区域即获得胜利；若防守方将进攻方生命削至零，则由防守方取胜。\n\n要占领一个区域，进攻方必须同时控制防守方所拥有的全部目标点。目标点是指地图上标有字母（A 或 B）的小型区域。只要玩家站在或搭乘载具停留在该区域内，进度条就会逐渐填满。进度条填满后，该目标点即被一方队伍占领。 \n\n新兵突破与禁区冲突里的新兵大逃杀一样，是熟悉《战地风云》多人模式的好选择。射击训练场（可在主菜单的装备页面进入）适合测试武器，而新兵突破更适合作为正式对局前的热身，帮助你熟悉职业特性，例如被动能力和装备，也能体验武器在实战中的表现。在这里不用在意胜负，新兵模式的目的就是让你先熟悉玩法，把队伍磨合好，再加入其他多人玩法。\n\n基于这一点，下面是专为突破模式准备的五条技巧，适合想稳住胜率的玩家：\n### 新兵突破的五条技巧{#five-tips-for-initiation-breakthrough}\n\n1. **人越多越好。**目标点上队友越多，占领进度就越快。无论是小队内还是整个团队，都要一起协作，占点推进（作为进攻方）或压制对手进度（作为防守方）。\n2. **尽量去站点。**当双方都踩在目标点上时，占点进度会停滞。尤其是防守方，要尽量拖住对手，在点内多撑一会儿，直到目标重新回到己方控制。\n3. **在防守？保持防线完整。**防守方的胜利关键在于建立一道不可撼动的整体防线，让进攻方无法穿过来到达目标点。利用环境掩体、火力压制以及清晰沟通，与队友协作，在进攻方推进之前尽快削减他们的生命。\n4. **在进攻？找缺口，动点脑筋。** 进攻方的胜利取决于能否找到对方防线的漏洞。 有可能是侧翼路线没人盯，也可能是两处目标点时，所有防守方都挤在同一个点上。熟悉地图后，用装备和载具打开局面：目标点之间的墙体或建筑，可以用突击梯翻越，也能用大锤和火箭筒破拆；侦察无人机能提前探路并清除敌方地雷；有时候，最强的进攻来自一群拿着除颤器的支援兵，每隔几秒就把队友救回来。 \n5. **进入加时赛，就绝不能松手。**只要目标区还有进度在推进，即便进攻方生命已经耗尽，依然能推进到下一区域，甚至直接获胜。在最后一个点被拿下，或最后一名进攻方被赶出点前，绝不能放弃。\n\n## **融入《战地风云》基因的小队战术模式 - 破坏与团队死斗{#team-tactical-modes}**\n\n![一支全副武装的小队冲入房间，身后巨大的爆炸将碎片与火焰炸向四周，一名士兵抱着起爆器寻找掩护。](https://drop-assets.ea.com/images/198HnKJm9KDAykAJro5osT/737304bd9fabf8b635baf52ed85d0e10/BF6-Sabotage-ActionShot-16x9.png?im=AspectCrop=%2816,9%29,xPosition=0.8,yPosition=0.5351851851851852)\n\n更习惯小规模的小队战术模式？本次免费试玩中，有团队死斗，还有随加州反抗军更新推出的限时破坏模式，让你感受《战地风云》的基因如何强化步兵战斗体验。 \n\n团队死斗，就是团队死斗。很简单，不是击杀对方，就是被对方击杀。 \n\n在破坏模式中，双方需要在多处区域争战，负责攻击或防守高价值货物。手雷、装备、爆炸物，只要能对货物造成伤害，都可以用。摧毁货物最多的小队获得胜利。\n\n与突破模式不同，破坏采用双回合赛制，让双方都能体验进攻与防守。第一回合里，指定的进攻方（1号队）需要在最短时间内摧毁地图上A到C所有据点里的全部目标，同时还要抵挡防守方（2号队）的阻击。回合结束后，系统会记录被摧毁的货物据点数量以及完成所用的时间。第二回合中，双方互换身份：1号队改为防守，2号队则争分夺秒，尝试打破1号队首回合的成绩。\n### 小队战术模式的五条要点{#five-tips-for-team-tactical-modes}\n\n1. **记得救人，也别忘了请求队友把你拉起来。**《战地风云》不同于其他第一人称射击，更强调团队配合，与队友相互支援。小队队友之间都能互相复活，支援兵的复活速度更快，还能复活非本小队成员。所以既要养成主动寻找复活机会的习惯，也别轻易“放弃”。倒地后请求复活，让自己能在战场上坚持更久。\n2. **团队死斗 - 时刻注意自己和小队的后方。**冲动的激进行动，很容易让局面失控。尽量以小队整体行动，既不让队友暴露，也不逼得任何人贸然冲锋。同时要警惕从侧面绕来的敌人，那往往会是一击致命。\n3. **破坏 - 爆点往往就在一瞬间。**把子弹留给步兵。对付货物，手雷、爆破装置和一应爆炸物才是最有效的。在确保安全的情况下，不妨多花一秒切换武器，使用你所在兵种威力最大的装置，比如高爆发射器或C4，把敌方货物彻底炸穿。\n4. **破坏 - 在防守端，没人不喜欢会用装置的队友。**守货物时，思路不能只顾着击杀进攻方。比如你喜欢玩支援兵，那就试试用手雷和导弹的截获装置，或许能有效拦下爆炸，保护货物不被炸毁。\n5. **破坏 - 时间不等人。**摧毁所有货物还不够，速度才是胜负的关键。拖着不去炸货物，只会让对手抓住机会，比你更快完成全部破坏。保持冷静，把摧毁货物放在第一位，不要为了几个人头而分散精力。\n\n## **全面战争 - 征服、升级和突破{#all-out-warfare}**\n\n![在朦胧的城市天际线下，爆炸点燃了房屋，车辆正在燃烧，一架军用直升机在上空盘旋，四周烟雾缭绕、满目疮痍，郊区陷入混乱。](https://drop-assets.ea.com/images/4lPqWyaw6kPtXKbQEufwXl/bb58f00aca2295d0dfe9a86ab3e5118f/Redsec-CaliforniaResistance-Vista-16x9.png?im=AspectCrop=%2816,9%29,xPosition=0.2515625,yPosition=0.5101851851851852)\n\n是什么让《战地风云》成为如今的系列作品？全面战争模式里，步兵与载具协同作战，联合兵种塑造《战地风云》专属震撼瞬间。全面战争的核心，是我们最受欢迎、延续至今的经典征服玩法。在全面战争的框架下，升级作为全新玩法加入战场。从战术到火力，能让你手中的全部装备经历完整的考验。补齐这三大模式的，是突破，玩法与入门阶段的突破一致。\n\n在征服模式中，双方为占领并控制地图上的多个据点展开争夺。从总部出发，每个小队必须在目标的指定区域停留一定时间，占领战区周围的字母标记的目标。另一支队伍可以随时偷走目标，当两支队伍的玩家同时在战区内时，就可以“争夺”目标，这会停止任何占领进度。\n\n每支队伍都有固定的生命值，玩家被击杀且未被复活时，生命值就会减少。占领的目标也会让兵力减少；一个团队控制的每个目标都会导致另一个团队每隔几秒钟就失去一个兵力。在征服模式里，哪支队伍先把对手的生命耗到零，哪支队伍就算赢。\n\n升级模式的玩法和征服接近，但有三点重要区别。第一，没有生命系统，队友可以无限次重生，分数不会因此变化。被队友救起来就能立刻投入战斗，但重生需要等，这段时间本可以用来占点或守点。\n\n第二，积分规则改为占下区域内多数目标点，并推动区域进度条。简单说，只要目标点数比对面多，区域进度就会往前推一方的进度条填满即表示成功占领阵地。率先夺取三个阵地的队伍将赢得比赛。\n\n最后，随着区域不断被占下，可用载具的数量和类型都会增加。开局时，四轮摩托和轻型运载车是最快的移动方式。到比赛后期，坦克、直升机、喷气机都会陆续出现，用来攻占剩余目标点会更有优势。\n### 全面战争的五条实战技巧{#five-tips-for-all-out-warfare}\n\n1. **PTO - 专注目标攻防。**说得直接些，征服和升级的胜负都取决于占点。一个人跑到地图角落打得再猛，也很难真正帮到队伍。先和小队确定要拿哪些区域，再把精力集中到这些点位上。无论是远距离标记与压制，还是上前线直接推进进度，都要围绕目标点来打。\n2. **跟紧你的小队。**这些模式玩家太多，单打独斗往往起不了太大作用。不管和朋友一起，还是与战地社区玩家组队，都要通过文字、语音和标记系统沟通，协同制定并执行取胜思路。\n3. **去开直升机（或者坦克，或者喷气机）。**在这些模式里，步战能做到的终究有限。不要怕上载具，至少可以坐上去当乘员，用随车武器提供支援。可以用坦克推掉敌方阵地，也可以用高速运载车迅速接近目标点，或者坐进直升机、喷气机从空中倾泻火力，清空空域。\n4. **征服 - 建立缓冲区。**每张地图在目标点之间都会有关键位置，比如建筑、高地等地形。占点能直接加分，但控住这些要害位置，会更容易消耗敌方生命。打征服时，观察敌我在点位间的移动路线，再根据情况建立卡位和缓冲区，挡住敌方一波又一波的推进。\n5. **升级 - 顺着战局节奏走。**随着区域被陆续占下，活动范围会不断缩小，同时会有更多载具增援投入战场。这时最好及时调整打法，让节奏和规模都跟上当前战局。换句话说，坦克开始推进后，你可能会把狙击步枪和动向探测器放下，改用冲锋枪和修理工具。升级模式里的战况变化很快，每个兵种都能顺着局势及时调整。 \n\n## **时间有限 - 免费领取禁区冲突登录奖励**\n\n![画面为一把带瞄具、迷彩涂装的狙击步枪，周围散落子弹与弹匣。文案显示：“《战地风云 6》禁区冲突免费武器包。11 月 30 日前登录，即可领取新武器。”](https://drop-assets.ea.com/images/1uozX0u36GKSROEoqpZjc8/d5e2cc6de40242fbaac9cf9fc4bb4b11/BF6-RedSec-LoginIncentive-CN-16x9.jpg?im=AspectCrop=%2816,9%29,xPosition=0.5,yPosition=0.5)\n\n加州反抗军刚上线，我们仍在庆祝。别错过这次免费领取武器包的机会。\n\n在 11 月 30 日前，只要登录《战地风云》禁区冲突就能解锁 M2010 ESR 狙击步枪的“致命部队”武器包。免费试玩《战地风云 6》的理由又增加了！\n\n只要启动禁区冲突，或者你是本体玩家也可以直接启动《战地风云 6》，然后到收件箱里领取奖励。不知道收件箱在哪？在主菜单找带 EA 标志或信封的图标，点击它，或按下手柄对应按键，就能进入 EA Connect。在这里，你可以查看并联系不同平台的好友，也能看到收件箱里的消息，其中就包括赠送你“致命部队” M2010 ESR 狙击步枪武器包的那条。\n\n记得在 11 月 30 日前领取，无论是在林登堡的禁区冲突大逃杀，还是《战地风云 6》里多人参与的征服等大型模式，这把远程强力武器在任何远距离交战里都非常致命。\n## **这是你的战场 - 立即加入《战地风云》禁区冲突**\n\n![武装队伍穿行在郊区战场，走在最前方的士兵正举枪瞄准，硝烟、战火与混乱组成背景，远处的美国国旗缓缓飘扬。](https://drop-assets.ea.com/images/6cldFmFVRAcMUtlei8I5pV/555fc787abfeb98002fecde6dd1025c4/BF6-CaliforniaResistance-LeadImage-16x9.jpg?im=AspectCrop=%2816,9%29,xPosition=0.44869791666666664,yPosition=0.4287037037037037)\n\n《战地风云》禁区冲突是免费游戏。点击下载，前往林登堡作战，限时体验《战地风云 6》的免费试玩。\n\n升级免费试玩版，体验更多《战地风云 6》的乐趣，包括全球规模的单人战役、多人全面战争模式，以及门户的完整玩法。\n\n《战地风云 6》现已推出标准版（建议零售价$69.99）与幻影版（建议零售价$99.99）。幻影版除包含《战地风云6》完整游戏外，还附带《战地风云》Pro版代币、“幻影小队”士兵皮肤、武器包、高级经验值加成等奖励内容。 \n\n**需要《战地风云》禁区冲突并安装全部游戏更新。游戏包含可选内购内容。限时优惠。有条件和使用限制。详情请参见 battlefield.com。*\n\n***优惠可能不同或有所调整。 详情参见零售商网站。*\n"
    },
    {
      "title": "《战地风云 6》与禁区冲突第 1 赛季 - 加州反抗军赛季中期路线图",
      "summary": "探索林登堡的秘密，进一步了解随加州反抗军更新推出的新地图、新模式，以及更多精彩内容。",
      "slug": "season-1-california-resistance-mid-season-roadmap",
      "type": "新闻文章",
      "date": "2025-11-18T16:00:00.000Z",
      "img": "https://drop-assets.ea.com/images/6cldFmFVRAcMUtlei8I5pV/555fc787abfeb98002fecde6dd1025c4/BF6-CaliforniaResistance-LeadImage-16x9.jpg",
      "featured": false,
      "tags": [],
      "body": "\n![武装队伍穿行在郊区战场，走在最前方的士兵正举枪瞄准，硝烟、战火与混乱组成背景，远处的美国国旗缓缓飘扬。](https://drop-assets.ea.com/images/6cldFmFVRAcMUtlei8I5pV/555fc787abfeb98002fecde6dd1025c4/BF6-CaliforniaResistance-LeadImage-16x9.jpg)\n\n林登堡的秘密开始浮出水面。在多处重装把守的SCIF发现机密情报，追查之下，线索尽数指向南加州一支被称为“323”的武装生存组织。 他们的供货商是铁岸物流，这一神秘实体可能与和平军团有所关联。一支精英小队被派出，沿线索追查，寻找答案。\n\n《战地风云 6》与禁区冲突第 1 赛季继续推进，加州反抗军已于 11 月 18 日凌晨 4 点正式上线（UTC 12:00）。\n\n本次强制更新同时适用于免费体验†禁区冲突的玩家，以及所有《战地风云 6》的拥有者，新增两把可免费获取的功能性武器供装备用。更新后，《战地风云》6拥有者将获得全新地图与全新模式等内容，禁区冲突全员亦将迎来新内容：试炼场模式将增加新任务，大逃杀模式的林登堡地图将出现可破解SCIF（预备者藏匿点）。11月下旬全平台还将推出《战地风云 6》免费试玩体验，开放部分地图与游戏模式。 \n\n加州反抗军更新（补丁 1.1.2.0）除公告列出的新内容外，还修复了士兵响应、射击散布和瞄准辅助、动画精度以及整体稳定性问题。此前，11 月 11 日的游戏体验更新（补丁 1.1.1.5）修复了涉及试炼场的主要漏洞，优化了大逃杀的比赛流程、载具对抗措施可靠性、武器精度及整体游戏稳定性，同时解决了任务挑战条件等小问题，以便解锁功能性内容。\r\n\r\n关于这些补丁的更多技术信息，[可在官网的“Game Updates” 部分查看](https://www.ea.com/games/battlefield/battlefield-6/news?page=1&type=game-updates)。欢迎加入我们的[《战地风云》官方 Discord 服务器](https://www.google.com/url?q=https://discordapp.com/channels/140933721929940992/1435624356842573924&sa=D&source=docs&ust=1763042559000386&usg=AOvVaw3OfZ0lpCQGZSneRid6xhBK)，获取更多社区更新，找到你的队友，一起体验加州反抗军更新的全部内容。 \n\n![一张信息图，展示《战地风云 6》和禁区冲突即将上线的内容，附带缩略图与日期。](https://drop-assets.ea.com/images/4NsB0x61UYfXXxu5Kxdtm6/fa281df808bebc4e98d24af67a0c8419/BF6_S1_Mid-SeasonRoadMap_HERO_3840x2160_zh-CN.png?im=AspectCrop=%2816,9%29,xPosition=0.25,yPosition=0.25)\n## **加州反抗军限时活动：面向《战地风云 6》与禁区冲突免费体验** \n\n![武装队伍穿行在郊区战场，走在最前方的士兵正举枪瞄准，硝烟、战火与混乱组成背景，远处的美国国旗缓缓飘扬。](https://drop-assets.ea.com/images/1axVMaa1qqOUnXEwXgMMJJ/b2d91827d8f858e636c6cc745c29127c/S1B2_LeadImage_1920x1080.jpg?im=AspectCrop=%2816,9%29,xPosition=0.5,yPosition=0.5)\n\n本次活动将重点展示加州反抗军更新的新内容，活动在加州反抗军阶段持续开放，至 12 月 9 日冬季攻势开启时截止。玩家可以从“开始游戏”菜单的专属分区进入限时活动；左侧导航栏有专属入口，与“多人游戏”、免费“禁区冲突”等并列。\n\n加州反抗军分区提供快速入口，直达主要内容，包括：\n### 加州反抗军奖励路径 - 11 月 18 日至 12 月 9 日\n\n![一名士兵手持DB-12霰弹枪，一边射击一边吼叫。在他们周围，还有 3 名队友在战斗。](https://drop-assets.ea.com/images/56FZ6NRApAKgfyUVnDcMKz/28ce6c09b0897b1ba46a58092308731f/BF6_S1B2_HF_Shotgun_Screenshot_1920x1080_NoLogo_opti.jpg?im=AspectCrop=%2816,9%29,xPosition=0.5,yPosition=0.5)\n\n推进加州反抗军奖励路径等级，即可解锁免费功能性内容与付费高级奖励，包括武器包。亮点包括免费SMG武器包与全新免费功能性DB-12霰弹枪。\n\n高级等级奖励需购买第1赛季战斗通行证。\n\n奖励路径如下：\n\n[table](<thead><tr><th>\n**等级**\n</th><th>\n**所需奖励路径积分** \n</th><th>\n**免费/高级等级（需战斗通行证）** \n</th><th>\n**物品名称 - 物品类型** \n</th></tr></thead>)(<tbody><tr><td>\n1\n</td><td>\n10\n</td><td>\n免费\n</td><td>\n“自由指令” - 玩家卡背景 \n</td></tr><tr><td>\n2\n</td><td>\n20\n</td><td>\n高级\n</td><td>\n“生而自由” - 士兵徽章 \n</td></tr><tr><td>\n3\n</td><td>\n30\n</td><td>\n免费\n</td><td>\n“自由钟爆破者”武器包 - PW7A2 （冲锋枪） \n</td></tr><tr><td>\n4\n</td><td>\n40\n</td><td>\n高级\n</td><td>\n战斗通行证经验加成（30 分钟） \n</td></tr><tr><td>\n5\n</td><td>\n50\n</td><td>\n高级\n</td><td>\n“翼展” - 武器挂饰 \n</td></tr><tr><td>\n6\n</td><td>\n60\n</td><td>\n免费\n</td><td>\n“自由” - 武器贴纸 \n</td></tr><tr><td>\n7\n</td><td>\n70\n</td><td>\n高级\n</td><td>\n“归于自由” - 载具贴花 \n</td></tr><tr><td>\n8\n</td><td>\n80\n</td><td>\n免费\n</td><td>\n“加州巡航者” - 载具涂装 （Traverser Mark 2） \n</td></tr><tr><td>\n9\n</td><td>\n90\n</td><td>\n高级\n</td><td>\n装备经验加成（30 分钟） \n</td></tr><tr><td>\n10\n</td><td>\n100\n</td><td>\n高级\n</td><td>\n“恶邻”士兵皮肤-（北约突击兵 - 沙漠蝗虫部队士兵阿里夫·赛义德） \n</td></tr><tr><td>\n11\n</td><td>\n110\n</td><td>\n免费\n</td><td>\nDB-12 霰弹枪（功能性基础武器） \n</td></tr></tbody>)\n\n加州反抗军奖励路径可以与第 1 赛季战斗通行证*同时*推进。换言之，不用在第 1 赛季战斗通行证路径——比如叛变行动、财富战士等——和加州反抗军奖励路径之间二选一。\n\n取而代之的是，奖励路径等级靠单独的奖励路径积分推进，与第 1 赛季战斗通行证进度互不干扰。每个奖励路径等级需要 10 点奖励路径积分解锁，完成整条路径总共需要110点积分。奖励路径积分有两种获取方式：\n\n每周挑战会在挑战界面明确标出是否提供奖励路径积分。不同挑战提供的积分不同；比如难度较低的每周挑战也会根据具体难度划出相应的积分区间。 \n\n不是所有每周挑战都会给出奖励路径积分，只有在加州反抗军活动期间，参加特定的每周挑战才会提供。\n\n加州反抗军挑战同样提供奖励路径积分，这些目标都围绕本次更新的新玩法设计。 \n\n比如有一个活动挑战只是要求完成几场破坏模式，另一个则要求在所有模式下用发射器拿到击杀或助攻。 \n## **《战地风云 6》全新内容** \n### 东方木林 - 地图，支持多种规模战斗，配备地面及空中载具（《战地风云 6》） \n\n![俯视图展示一座饱经战火的小镇，住宅楼被毁，火势蔓延，地面有士兵。一架直升机从头顶飞过。](https://drop-assets.ea.com/images/5rY8q5wXe6Ecj2ALReWyrG/fa6250dbb42c10188d1990a516146277/BF6_S1B2_HF_VistaShot_Screenshot_1920x1080_NoLogo_opti.jpg?im=AspectCrop=%2816,9%29,xPosition=0.5,yPosition=0.5)\n\n战争已经蔓延至南加州的一座田园别墅。东方木林的奢华泳池与私人高尔夫球场已沦为战场。高强度的战斗正威胁着这片郊区景致的宁静祥和。 \n\n与布莱克韦尔油田一样，东方木林是一张全新地图，虽然地理位置与林登堡接近，但布局完全独立设计。东方木林支持所有多人模式，地图内为每种模式量身打造了多个战斗区域。其中一些模式还将出现四轮终极恐怖......\n### Turfpro PTV Royale - 载具\n\n![一辆白绿相间的高尔夫球车，停放在仓库中，背景为深色。](https://drop-assets.ea.com/images/58nPgt2BwvXAwundHTbJDF/0834418acd468aeecd0aa689f151ce26/BF6_S1_GolfCart_Vehicle_.jpg?im=AspectCrop=%2816,9%29,xPosition=0.5,yPosition=0.5)\n\n绿茵场上最致命的交通工具。一辆可搭载四人的高尔夫球车，能迅速将小队带入或撤出战斗。在东方木林地图上，这辆车会与其他更“适合作战”的载具一起出现。\n\n当然，这辆被征用的球车没法搭载军用级武器，所有火力防御全靠敢开着它冲进火线的步兵自己解决……\n### 破坏 - 专为 8v8 战斗而设计的限时模式（《战地风云 6》） \n\n![士兵手持引爆器，背靠墙壁躲在角落里。角落之外，3名士兵从爆炸中逃跑](https://drop-assets.ea.com/images/3aLSotq1O4NldMNzD2ACm6/d00a0cb29a0e7cc82dd861d363ba3aab/BF6_S1B2_HF_Sabotage_Screenshot_1920x1080_NoLogo.jpg?im=AspectCrop=%2816,9%29,xPosition=0.5,yPosition=0.5)\n\n保护与摧毁。两支队伍在同一地图的多个区域，围绕高价值目标展开攻防战。手雷、装备、爆炸物，只要能对货物造成伤害，都可以用。摧毁货物最多的小队获得胜利。\n\n破坏模式采用两回合制，让双方队伍都能体验进攻与防守。标准破坏模式一局有三个货物区域，在地图上清楚标为“A、B、C”。高优先级货物分散在各区域，从雷达、空投到弹药堆和补给箱，进攻方必须清扫区域、摧毁所有资产才能彻底“破坏”防守方。\n\n第一回合指定进攻方（队伍1）要在防守方（队伍2）阻击下尽快摧毁所有区域内物品回合结束后，系统会记录被摧毁的货物据点数量以及完成所用的时间。第二回合中，双方互换身份：1号队改为防守，2号队则争分夺秒，尝试打破1号队首回合的成绩。如果进攻方仍在有未毁货物的区域内，会触发短暂加时。\n\n每摧毁一个货物区域得 1 分。得分高的队伍获胜；如果两支队伍都摧毁了所有区域，则用时更短的一方获胜。\n\n破坏模式限时上线期间会在多张地图开放，包括第 1 赛季新图东方木林和布莱克韦尔油田。\n## **《战地风云》禁区冲突全新内容 - 免费游戏** \n### 牛仔竞技 - 试炼场任务 \n\n![一辆大型布拉德利战车自集装箱驶入战场，两侧步兵正交火护送。](https://drop-assets.ea.com/images/6uZzEA8H9in4aqvXGC0ng6/351caf4bdb987617750dd744fe50c4b8/BF6_S1B2_HF_BradleyTank_Screenshot_1920x1080_NoLogo.jpg?im=AspectCrop=%2816,9%29,xPosition=0.5,yPosition=0.5)\n\n跨上马鞍，准备迎接以坦克为核心的新淘汰任务。 \n\n在骑乘中，小队需驾驶散布在战区内的重装坦克完成击杀任务。积分最低的两支小队将被淘汰出局。\n\n主要得分方式是通过从集装箱刷出的载具（坦克）拿击杀，每次击杀计 3 分，是普通击杀与急救得分的3倍。在牛仔竞技任务开始时，地图会散布多个集装箱，功能与大逃杀相同，但无需载具钥匙卡即可直接开启。\n\n牛仔竞技任务可在最终任务前的任意试炼场阶段出现；为适配地图大小，集装箱与载具补给站数量会相应调整：\n\n[table](<thead><tr><th>\n**任务名称**\n</th><th>\n**# 集装箱数量**\n</th><th>\n**# 补给站数量**\n</th></tr></thead>)(<tbody><tr><td>\n**第一轮任务（8支小队）** \n</td><td>\n8\n</td><td>\n3\n</td></tr><tr><td>\n**第二轮任务（8支小队）** \n</td><td>\n6\n</td><td>\n2\n</td></tr><tr><td>\n**第三轮任务（4支小队）** \n</td><td>\n4\n</td><td>\n1\n</td></tr></tbody>)\n\n这个任务是向工程兵的致敬：两条训练路径，反装甲和作战工程兵，都提供驾驶或摧毁坦克的工具，更不用说那些能辅助或干扰载具的装备。考虑到这一点，四名工程兵虽能组成小队，但影响可能不如兵种配置均衡的小队大，毕竟其他三个兵种也有各自干扰敌方载具或驾驶员的方法。\n### 林登堡大逃杀更新：SCIF / 预备者藏匿点 / 战斗拾取藏匿点  \n\n![士兵挥舞着一把有多个枪管和大型圆形弹匣的巨型武器。他一边吼叫一边向前开火。](https://drop-assets.ea.com/images/AIWdasoUek3zyva6hlTug/1a9c1083216e0d671c1237b20b69be54/BF6_S1B2_HF_Minigun_Screenshot_1920x1080_NoLog.jpg?im=AspectCrop=%2816,9%29,xPosition=0.5,yPosition=0.5)\n\n323 的 SCIF（敏感分隔情报设施），也就是预备者藏匿点或战斗拾取藏匿点，将在大逃杀模式中散布在林登堡地图。这些装甲集装箱内藏预备者抵抗所需物资：战斗拾取、情报缓存等。 \n\n开启集装箱有多种方式……情报显示 323 已设下安保机关，需谨慎开启。  \n### 门户沙盒地图 \n\n从零开始打造《战地风云 6》。Portal 现已作为沙盒推出，为创作者提供一块空白画布，带来前所未有的自由度，打造并自定义难忘体验。 \n\n从字面上看，它是一个沙盒：基于开罗围城环境，这片平坦无结构的沙质沙漠，是在门户模式下创造一切的开放绿洲。\n\n门户开发者可查阅我们的[补丁说明](https://www.ea.com/games/battlefield/battlefield-6/news/battlefield-6-game-update-1-1-2-0)，获取创作用的额外脚本代码。\n### **《战地风云 6》免费试玩阶段** \n\n5 种模式。3 张地图。1 周《战地风云 6》免费体验。\n\n11 月 25 日至 12 月 2 日，全员免费畅享终极全面战争。在开罗街头参与激烈的城市巷战。跳入东方木林与布莱克韦尔油田两处已化为战场的南加州标志性景观。体验征服、突破等《战地风云》经典的大规模战斗，或投入全新的破坏模式。在破坏模式中正面交锋，摧毁敌方货物。在团队死斗中投入纯粹的高强度近距离作战。召集小队，抓住机会。\n\n有关免费试玩的更多信息，将在下周的专门博客文章中分享。\n## **《战地风云 6》和禁区冲突的全新共享内容** \n### 地图武器 - 特色（《战地风云 6》及禁区冲突） \n\n![桌子上放着一把多枪管机枪，周围摆放着弹药、弹匣、无线电等。](https://drop-assets.ea.com/images/4dvQ4jV3gsGEFVeD8SKeuu/595a81e0521267eb8adf37596a400c25/BF6_S1_Weapon_Minigun_DefaultSkin.jpg?im=AspectCrop=%2816,9%29,xPosition=0.5,yPosition=0.5)\n\n地图武器是威力惊人的特殊武器，足以扭转战局。这些武器极其稀有，只能在地图上的高价值物资点中找到。夺取地图武器，为你的小队赢得战术优势。\n\n- 罗氏 Mk-2 SMRW：可蓄能轨道炮，对步兵、载具与建筑造成巨大伤害。\n- MP-RMG：一把射速极快的迷你枪，适用于对付轻型载具和步兵。\n\n\n战斗拾取将随本次更新稍后推出，覆盖《战地风云 6》和禁区冲突的全部游戏体验 \n### DB-12 - 霰弹枪（《战地风云 6》及禁区冲突） \n\n![黑色DB-12霰弹枪置于暗色台面，周围散落着子弹与其他军用工具。](https://drop-assets.ea.com/images/3n0OE05K2uABuAGJyA6cLX/cfdc6b16365c07be215b5b7f6147de93/BF6_S1_DB12_Shotgun_DefaultSkin.png?im=AspectCrop=%2816,9%29,xPosition=0.5,yPosition=0.5)\n\n一款采用双管设计的泵动式霰弹枪，拥有独立的双弹管供弹系统。一次扣动扳机发射一管弹药，第二次扣动扳机发射另一管，之后泵动机制会重新装填两根管道。\n\n犊牛式 DB-12 适合突击兵背负，也适合能解决近距离难题的任何装备栏。它的双发潜力用途广泛：保证击倒单个敌人，在首发落空时救场；与其他泵动式替代品的单发霰弹、飞镖、炮弹相比，它也更有效地对付两人以上的敌群。\n\n这把武器是加州反抗军奖励路径的最终免费物品。\n### M357 Trait - 副武器（《战地风云 6》及禁区冲突） \n\n![一把 M357 Trait 左轮置于桌上，四周环绕弹药与工具。](https://drop-assets.ea.com/images/1zWXij67lcFwBSLwZA52fQ/80296ab3b9ed43c79c7cb7cf7c6e7ab3/BF6_S1_M357Trait_Sidearm_M327TRR8_DefaultSkin.jpg?im=AspectCrop=%2816,9%29,xPosition=0.5,yPosition=0.5)\n\n这把八发左轮手枪威力巨大，射速较低，近距离作战时表现强劲，但与 .44 马格南相比，远距离的伤害衰减较大。\n\nM357 Trait是“技巧射击”副武器；与该武器类别中的半自动替代品不同，这款左轮手枪需要精确射击才能有效地伤害、击倒和消灭敌人。在大逃杀模式中，M357 Trait 适合作为起始装备栏武器，能够在游戏早期阻止威胁。在所有其他模式中，包括禁区冲突中的免费大逃杀与破坏等多人模式，M357 Trait 应该能作为近距离射击的绝佳备用武器。\n\nM357 Trait 可通过第 1 赛季的挑战任务解锁；更多信息请参阅游戏内详情。\n### 超薄前握把 - 配件（《战地风云 6》及禁区冲突） \n\n![桌子上放着一把武器，装备窄型阻手器配件。](https://drop-assets.ea.com/images/3yW2YF2MuBIYE8hJKbHGJr/ad9c936d496832243365b4b951b4ec4a/BF6_S1_Troy_WeaponAttachment.jpg?im=AspectCrop=%2816,9%29,xPosition=0.5,yPosition=0.5)\n\n第一赛季的第三款配件，这款前握把以独特的人体工学设计与操控特性，成为下挂配件的全新选择。 \n\n与 M357 Trait 和之前在第 1 赛季中添加的配件一样，超薄前握把可通过第 1 赛季的挑战任务解锁。\n## **冬季攻势蓄势待发 - 12 月 9 日上线** \n\n![一条白雪皑皑的城市街道，被橙色施工桶和路障封锁，桥边停着救护车和警车。光秃秃的树枝与弥漫的薄雾，预示着一个寒冷的冬日清晨。](https://drop-assets.ea.com/images/4ywrXZoEQkrfBBDU0tUxHt/e47241c715df1b367e0b03a385cc948c/BF6-Map-IceLockEmpireState-16x9.png?im=AspectCrop=%2816,9%29,xPosition=0.5,yPosition=0.44907407407407407)\n\n冬季攻势是第 1 赛季的终极大型更新，也是 2025 年《战地风云 6》的最后一个重大更新，将于 12 月 9 日推出。准备打破冰封僵局；帝国之州即将冻结，多人游戏与试炼场模式变体引入全新冰锁机制，年终前还有额外门户更新。\n\n本次更新情报将于 12 月 9 日随更新发布；以下是此前路线图已公布的内容回顾：\n### 冰封帝国之州 - 限时地图更新（《战地风云6》） \n\n发现环境威胁 - 布鲁克林的气温已降至冰点以下。武装起来，保持温暖，通过帝国之州地图的限时视觉更新完全控制该区域。 \n### 冰封锁定 - 限时活动（《战地风云 6》） \n\n冰封锁定即将来临......\n\n该限时活动围绕冻结机制展开，若玩家不能及时获得外部热源，生命值将持续下降。注意不要患上雪盲，战斗区域设有指定热源区帮你恢复体温，也可以使用燃烧手雷等装置自行取暖。\n### 冰封锁定试炼场 - 限时活动 （禁区冲突） \n\n与《战地风云6》多人模式的冰封锁定类似，试炼场模式也将推出限时冰封锁定版本，以严酷的冬季环境强化游戏的极限体验。 \n\n不同于在林登堡展开的传统试炼场，本次冰封锁定版本将在《战地风云6》多人地图冰封帝国之州上进行，每场比赛包含三项固定行动任务。在抵御严寒与冻结机制的同时完成任务，你的小队将收获的不仅仅是胜利的荣誉。\n### 冰攀斧 - 近战\n\n这款全新的近战工具旨在让敌人的血液变冷，或劈冰破壁前进，期待这款全新的近战工具让通常只有刀和锤子的这一类别变得出彩。冰攀斧将作为冬季攻势奖励路径的最终免费内容解锁。\n### Portal 更新内容\n\n全新的认证模式和所有冬季攻势内容，包括冰封帝国之州地图与冰封锁定规则，都将同步加入 Portal 平台。\n## **这是你的战场，立即加入《战地风云》** \n\n![《战地风云 6》魅影版宣传图展示了魅影小队、“幽匿”外观、“落影”武器、“奇美拉”载具，以及战地 Pro 代币。画面下方带有 EA Studios 标志。](https://drop-assets.ea.com/images/3SHeMKw7tL6lHyERFMEaYi/c34c104528178a43bcc89c81aa38b895/BF6-Phantom-Edition-Items-Beautyshot-ZH-HANS.jpg?im=AspectCrop=%2816,9%29,xPosition=0.28567708333333336,yPosition=0.4388888888888889)\n\n终极全面战争已然打响，召集您的战友，即刻投入战斗。 \n\n《战地风云》禁区冲突是免费游戏。点击下载，前往林登堡作战，限时体验《战地风云 6》的免费试玩。\n\n《战地风云 6》现已推出标准版（建议零售价$69.99）与幻影版（建议零售价$99.99）。\n\n幻影版除包含《战地风云 6》完整游戏外，还附带《战地风云》Pro版代币、“幻影小队”士兵皮肤、武器包、高级经验值加成等奖励内容。  \n\n![“战地 Pro”海报主体为一名未来风格士兵，突出独家游戏内容和专属特权。该服务包含即时解锁内容及高级功能权限。](https://drop-assets.ea.com/images/1ogaYaEW9l5MJcBOTUKwCA/9e80f9caae1fba6b62227ef0e8bc8211/BF6_S1_BFProUpsell_zh-CN_Hero_3840x2160.jpg?im=AspectCrop=%2816,9%29,xPosition=0.23854166666666668,yPosition=0.2199074074074074)\n\n抢先体验战地 Pro，与战友一同奔赴前线。在基础战斗通行证之上，还可额外获得 25 级跳级工具，六项专属即时解锁，可在 Portal 上主持 100 名玩家的持续服务器、专属奖励路径等。\n\n\r\n† *包括游戏内购买。可能需要适用平台账户及平台订阅（需另行购买）。需要持续的网络连接与EA账户方可游玩。*\n\n**部分内容将在赛季中期开放解锁，请*访问[*battlefield.com*](http://battlefield.com)了*解更多详情。*\n\n*在适用的平台上需拥有《战地风云》禁区冲突（单独销售）和全部的游戏更新。游戏包含可选内购内容。限时免费试玩版。试玩时间或会变更。需要有互联网连接、EA账户并接受 EA用户协议 (terms.ea.com/sc) 以及保密和Cookie协议 (privacy.ea.com/sc) 才能进行游戏。每个 EA 账户可以进行一次试玩。*\n\n***** *优惠可能不同或有所调整。 详情参见零售商网站。*\n"
    },
    {
      "title": "《战地风云 6》游戏更新 1.1.2.0",
      "summary": "《战地风云6》1.1.2.0版本更新将在全平台推出针对性修复、玩法调整和稳定性优化。",
      "slug": "battlefield-6-game-update-1-1-2-0",
      "type": "游戏更新",
      "date": "2025-11-17T18:30:00.000Z",
      "img": "https://drop-assets.ea.com/images/7ev25AYvHjj3eckyoNIxg4/78862e7259401ab76b1eb9254ab25068/BF6-GameUpdate-1120-16x9.jpg?im=AspectCrop=(16,9),xPosition=0.5,yPosition=0.5",
      "featured": false,
      "tags": [],
      "body": ""
    },
    {
      "title": "《战地风云 6》- 社区更新 – 加州反抗军前夕最新资讯",
      "summary": "《战地风云》最新动态，以及我们为“加州反抗军”所做的改动。",
      "slug": "updates-ahead-of-california-resistance",
      "type": "新闻文章",
      "date": "2025-11-12T16:00:00.000Z",
      "img": "https://drop-assets.ea.com/images/TGqVGFKEFLqOFS5KxCr8E/d95a9fd457010c3ad06552215ee9deb2/CMTY-Thumb-CU-1211-1-EN.jpg?im=AspectCrop=(16,9),xPosition=0.5,yPosition=0.5",
      "featured": false,
      "tags": [],
      "body": ""
    },
    {
      "title": "《战地风云》以开路先锋组合包致敬退伍军人纪念日",
      "summary": "深入了解由《战地风云》与美国游骑兵全国协会合作打造的开路先锋组合包。",
      "slug": "veterans-day-lead-the-way-pack",
      "type": "新闻文章",
      "date": "2025-11-10T16:00:00.000Z",
      "img": "https://drop-assets.ea.com/images/GLJvXrEgRO81ZNt2jvUEz/3d50dda4a67cae73dc10f72891117b66/BF6_TO_S1B1W3_WarHeroBundle__1_.jpg?im=AspectCrop=(16,9),xPosition=0.5,yPosition=0.5",
      "featured": false,
      "tags": [],
      "body": ""
    },
    {
      "title": "《战地风云 6》游戏更新 1.1.1.5",
      "summary": "《战地风云 6》1.1.1.5 版本更新，针对大逃杀流程、载具对抗、武器精度以及整体游戏稳定性进行了多项体验优化。",
      "slug": "battlefield-6-update-1-1-1-5",
      "type": "游戏更新",
      "date": "2025-11-07T16:30:00.000Z",
      "img": "https://drop-assets.ea.com/images/6NteL9FYUKolYQ9EgoApD5/e314634eabe0581c68f934f3814a735a/CMTY-Thumb-PNKJ-UP111-0611_EN.jpg?im=AspectCrop=(16,9),xPosition=0.5,yPosition=0.5",
      "featured": false,
      "tags": [],
      "body": ""
    },
    {
      "title": "《战地风云》禁区冲突第 1 赛季 Twitch 掉宝活动",
      "summary": "第 1 赛季上线期间，观看并支持您最爱的《战地风云》禁区冲突创作者直播，即可解锁 Twitch 掉宝奖励。",
      "slug": "battlefield-redsec-season-1-twitch-drops",
      "type": "新闻文章",
      "date": "2025-10-28T15:00:00.000Z",
      "img": "https://drop-assets.ea.com/images/6n4OR25diFbL9AVIrCE3Uq/4227f8de14bf49637d727403f92d3981/BF-Redsec-KeyArt-16x9.jpg",
      "featured": false,
      "tags": [],
      "body": ""
    },
    {
      "title": "加入禁区冲突与《战地风云 6》第一赛季 - 完整路线图揭晓",
      "summary": "跟随我们的解读，了解《战地风云 6》第一赛季详情，全新免费的禁区冲突体验也将全面揭晓。",
      "slug": "season-1-full-roadmap",
      "type": "新闻文章",
      "date": "2025-10-28T15:00:00.000+01:00",
      "img": "https://drop-assets.ea.com/images/3tdJom08lRqhGgBYkrqZfj/994ff2906a08b7ef74d697142322ee4c/BF6_KEY_Season1_16x9.jpg",
      "featured": false,
      "tags": [],
      "body": ""
    },
    {
      "title": "《战地风云 6》战斗通行证与《战地风云》Pro 即将在第 1 赛季登场",
      "summary": "了解全新的战斗通行证系统与《战地风云》Pro，在这里，您可以自行选择完成通行证的路径，并解锁第 1 赛季的所有免费与高级奖励。",
      "slug": "introducing-the-battlefield-6-battle-pass",
      "type": "新闻文章",
      "date": "2025-10-28T15:00:00.000+01:00",
      "img": "https://drop-assets.ea.com/images/4bwC40KoJvoLCtAq2Vm0TH/b2eddf17f8f885485a6b5e6536cfab83/BF6_KEY_EA_Dig_BPASS6_Horiz_16by9_3840x2160_384_F1.jpg?im=AspectCrop=(16,9),xPosition=0.5,yPosition=0.5",
      "featured": false,
      "tags": [],
      "body": ""
    },
    {
      "title": "《战地风云 6》更新 1.1.1.0",
      "summary": "《战地风云 6》1.1.1.0 补丁上线，在第一赛季开启前带来多项整体更新和优化。",
      "slug": "battlefield-6-update-1-1-1-0",
      "type": "游戏更新",
      "date": "2025-10-24T16:00:00.000+01:00",
      "img": "https://drop-assets.ea.com/images/2NHEbRDcS7EmKygO2faSJz/007bc9f7be5c15f63d22a667502654a4/BF6-PatchNotes-1110-Thumbnail.jpg?im=AspectCrop=(16,9),xPosition=0.5,yPosition=0.5",
      "featured": false,
      "tags": [],
      "body": ""
    },
    {
      "title": "《战地风云 6》- 社区更新 - 最新改动与第 1 赛季准备情况",
      "summary": "《战地风云》最新情报发布，内容涵盖第 1 赛季的后续更新计划，以及《战地风云》实验室的最新进展。",
      "slug": "battlefield-6-community-update-latest-changes-and-preparing-for-season-1",
      "type": "新闻文章",
      "date": "2025-10-24T14:00:00.000+01:00",
      "img": "https://drop-assets.ea.com/images/6YGriJQKsnTfjYgsh73ZZn/bc52d00392a00f70352445a60b1e79a2/BF6-CommunityUpdate-Thumbnail.jpg?im=AspectCrop=(16,9),xPosition=0.5,yPosition=0.5",
      "featured": false,
      "tags": [],
      "body": ""
    }
  ]
}